{ 
    "name": "WeatherStation",
    "version": "0.1.0",
    "keywords": "weather, sensor, humidity, pressure, temperature, wireless, controller",
    "description": "Weather station code",
    "authors": {
        "name": "Dolf Andringa",
        "email": "dolfandringa@gmail.com"
    },
    "include": "lib/WeatherStation/src",
    "platforms": "espressif8266",
    "frameworks": "arduino"
}
