{ 
    "name": "MeshGateway",
    "version": "0.1.0",
    "keywords": "mesh, gateway, nrf24L01, radiohead",
    "description": "Gateway for radiohead mesh that distributes addresses and pushes messages to mqtt",
    "authors": {
        "name": "Dolf Andringa",
        "email": "dolfandringa@gmail.com"
    },
    "include": "lib/MeshGateway/src",
    "platforms": "*"
}
